IBDAID_002_10,IBDAID_002,1.2
IBDAID_002_11,IBDAID_002,1.3
IBDAID_002_12,IBDAID_002,2.1
IBDAID_002_13,IBDAID_002,2.2
IBDAID_002_14,IBDAID_002,3.1
IBDAID_002_15,IBDAID_002,3.2
IBDAID_002_16,IBDAID_002,3.3
IBDAID_002_17,IBDAID_002,4.1
IBDAID_002_18,IBDAID_002,4.2
IBDAID_002_19,IBDAID_002,4.3
IBDAID_002_01,IBDAID_002,1.2
IBDAID_002_20,IBDAID_002,5.1
IBDAID_002_21,IBDAID_002,5.2
IBDAID_002_22,IBDAID_002,5.3
IBDAID_002_23,IBDAID_002,6.1
IBDAID_002_24,IBDAID_002,6.2
IBDAID_002_25,IBDAID_002,7.1
IBDAID_002_26,IBDAID_002,7.2
IBDAID_002_27,IBDAID_002,7.3
IBDAID_002_28,IBDAID_002,8.1
IBDAID_002_29,IBDAID_002,8.2
IBDAID_002_02,IBDAID_002,1.3
IBDAID_002_30,IBDAID_002,8.3
IBDAID_002_31,IBDAID_002,9.1
IBDAID_002_32,IBDAID_002,1.1
IBDAID_002_33,IBDAID_002,1.2
IBDAID_002_34,IBDAID_002,2.1
IBDAID_002_35,IBDAID_002,2.2
IBDAID_002_36,IBDAID_002,3.1
IBDAID_002_37,IBDAID_002,3.2
IBDAID_002_38,IBDAID_002,3.3
IBDAID_002_39,IBDAID_002,4.1
IBDAID_002_03,IBDAID_002,2.1
IBDAID_002_40,IBDAID_002,4.2
IBDAID_002_41,IBDAID_002,4.3
IBDAID_002_42,IBDAID_002,5.1
IBDAID_002_04,IBDAID_002,2.2
IBDAID_002_05,IBDAID_002,3.1
IBDAID_002_06,IBDAID_002,3.2
IBDAID_002_07,IBDAID_002,1.1
IBDAID_002_08,IBDAID_002,4.1
IBDAID_002_09,IBDAID_002,1.1
IBDAID_003_10,IBDAID_003,1.2
IBDAID_003_11,IBDAID_003,2.1
IBDAID_003_12,IBDAID_003,3.1
IBDAID_003_14,IBDAID_003,6.1
IBDAID_003_15,IBDAID_003,6.2
IBDAID_003_16,IBDAID_003,8.1
IBDAID_003_17,IBDAID_003,9.1
IBDAID_003_18,IBDAID_003,10.1
IBDAID_003_19,IBDAID_003,11.1
IBDAID_003_01,IBDAID_003,1.1
IBDAID_003_02,IBDAID_003,1.2
IBDAID_003_03,IBDAID_003,1.3
IBDAID_003_04,IBDAID_003,2.1
IBDAID_003_05,IBDAID_003,2.2
IBDAID_003_06,IBDAID_003,3.1
IBDAID_003_07,IBDAID_003,3.2
IBDAID_003_08,IBDAID_003,3.3
IBDAID_003_09,IBDAID_003,1.1
IBDAID_004_10,IBDAID_004,4.1
IBDAID_004_11,IBDAID_004,4.2
IBDAID_004_12,IBDAID_004,1.1
IBDAID_004_13,IBDAID_004,1.2
IBDAID_004_14,IBDAID_004,1.3
IBDAID_004_15,IBDAID_004,2.1
IBDAID_004_16,IBDAID_004,3.1
IBDAID_004_17,IBDAID_004,3.2
IBDAID_004_18,IBDAID_004,3.3
IBDAID_004_19,IBDAID_004,4.1
IBDAID_004_01,IBDAID_004,1.1
IBDAID_004_20,IBDAID_004,4.2
IBDAID_004_21,IBDAID_004,5.1
IBDAID_004_22,IBDAID_004,5.2
IBDAID_004_23,IBDAID_004,6.1
IBDAID_004_24,IBDAID_004,6.2
IBDAID_004_25,IBDAID_004,7.1
IBDAID_004_26,IBDAID_004,7.2
IBDAID_004_27,IBDAID_004,8.1
IBDAID_004_28,IBDAID_004,8.2
IBDAID_004_29,IBDAID_004,9.1
IBDAID_004_02,IBDAID_004,1.2
IBDAID_004_30,IBDAID_004,9.2
IBDAID_004_31,IBDAID_004,11.1
IBDAID_004_32,IBDAID_004,11.2
IBDAID_004_33,IBDAID_004,1.1
IBDAID_004_03,IBDAID_004,1.3
IBDAID_004_04,IBDAID_004,2.1
IBDAID_004_05,IBDAID_004,2.2
IBDAID_004_06,IBDAID_004,2.3
IBDAID_004_07,IBDAID_004,3.1
IBDAID_004_08,IBDAID_004,3.2
IBDAID_004_09,IBDAID_004,3.3
IBDAID_005_10,IBDAID_005,1.3
IBDAID_005_11,IBDAID_005,2.1
IBDAID_005_12,IBDAID_005,2.2
IBDAID_005_13,IBDAID_005,3.1
IBDAID_005_14,IBDAID_005,4.1
IBDAID_005_15,IBDAID_005,4.2
IBDAID_005_16,IBDAID_005,5.1
IBDAID_005_17,IBDAID_005,5.2
IBDAID_005_18,IBDAID_005,6.1
IBDAID_005_19,IBDAID_005,8.1
IBDAID_005_01,IBDAID_005,1.1
IBDAID_005_02,IBDAID_005,1.2
IBDAID_005_03,IBDAID_005,1.3
IBDAID_005_04,IBDAID_005,2.1
IBDAID_005_05,IBDAID_005,2.2
IBDAID_005_06,IBDAID_005,3.1
IBDAID_005_07,IBDAID_005,4.1
IBDAID_005_08,IBDAID_005,1.1
IBDAID_005_09,IBDAID_005,1.2
IBDAID_006_10,IBDAID_006,5.2
IBDAID_006_11,IBDAID_006,2.1
IBDAID_006_12,IBDAID_006,2.2
IBDAID_006_13,IBDAID_006,3.1
IBDAID_006_14,IBDAID_006,4.1
IBDAID_006_15,IBDAID_006,5.1
IBDAID_006_16,IBDAID_006,5.2
IBDAID_006_17,IBDAID_006,6.1
IBDAID_006_18,IBDAID_006,6.2
IBDAID_006_19,IBDAID_006,6.3
IBDAID_006_01,IBDAID_006,1.1
IBDAID_006_20,IBDAID_006,7.1
IBDAID_006_21,IBDAID_006,7.2
IBDAID_006_22,IBDAID_006,10.1
IBDAID_006_02,IBDAID_006,1.2
IBDAID_006_03,IBDAID_006,2.1
IBDAID_006_04,IBDAID_006,2.2
IBDAID_006_05,IBDAID_006,3.1
IBDAID_006_06,IBDAID_006,3.2
IBDAID_006_07,IBDAID_006,4.1
IBDAID_006_08,IBDAID_006,1.1
IBDAID_006_09,IBDAID_006,5.1
IBDAID_010_09,IBDAID_010,1.2
IBDAID_010_10,IBDAID_010,3.1
IBDAID_010_11,IBDAID_010,3.2
IBDAID_010_12,IBDAID_010,4.1
IBDAID_010_13,IBDAID_010,4.2
IBDAID_010_14,IBDAID_010,4.3
IBDAID_010_15,IBDAID_010,5.1
IBDAID_010_16,IBDAID_010,5.2
IBDAID_010_17,IBDAID_010,6.1
IBDAID_010_18,IBDAID_010,6.2
IBDAID_010_19,IBDAID_010,6.3
IBDAID_010_01,IBDAID_010,1.1
IBDAID_010_20,IBDAID_010,7.1
IBDAID_010_02,IBDAID_010,1.2
IBDAID_010_03,IBDAID_010,1.3
IBDAID_010_04,IBDAID_010,2.1
IBDAID_010_05,IBDAID_010,2.2
IBDAID_010_06,IBDAID_010,3.1
IBDAID_010_07,IBDAID_010,3.2
IBDAID_010_08,IBDAID_010,1.1
IBDAID_011_10,IBDAID_011,5.1
IBDAID_011_11,IBDAID_011,1.1
IBDAID_011_12,IBDAID_011,1.2
IBDAID_011_13,IBDAID_011,2.1
IBDAID_011_14,IBDAID_011,2.2
IBDAID_011_15,IBDAID_011,2.3
IBDAID_011_16,IBDAID_011,3.1
IBDAID_011_17,IBDAID_011,4.1
IBDAID_011_18,IBDAID_011,4.2
IBDAID_011_19,IBDAID_011,5.1
IBDAID_011_01,IBDAID_011,1.1
IBDAID_011_02,IBDAID_011,1.2
IBDAID_011_03,IBDAID_011,1.3
IBDAID_011_04,IBDAID_011,1.4
IBDAID_011_05,IBDAID_011,3.1
IBDAID_011_06,IBDAID_011,3.2
IBDAID_011_07,IBDAID_011,4.1
IBDAID_011_08,IBDAID_011,4.2
IBDAID_011_09,IBDAID_011,4.3
IBDAID_012_11,IBDAID_012,8.1
IBDAID_012_12,IBDAID_012,1.1
IBDAID_012_13,IBDAID_012,1.2
IBDAID_012_14,IBDAID_012,1.3
IBDAID_012_01,IBDAID_012,1.1
IBDAID_012_02,IBDAID_012,1.2
IBDAID_012_03,IBDAID_012,2.1
IBDAID_012_04,IBDAID_012,3.1
IBDAID_012_05,IBDAID_012,1.1
IBDAID_012_06,IBDAID_012,1.2
IBDAID_012_07,IBDAID_012,1.3
IBDAID_012_08,IBDAID_012,3.1
IBDAID_012_09,IBDAID_012,4.1
IBDAID_013_10,IBDAID_013,4.1
IBDAID_013_11,IBDAID_013,5.1
IBDAID_013_12,IBDAID_013,5.2
IBDAID_013_13,IBDAID_013,6.1
IBDAID_013_14,IBDAID_013,7.1
IBDAID_013_01,IBDAID_013,1.1
IBDAID_013_02,IBDAID_013,1.2
IBDAID_013_04,IBDAID_013,3.1
IBDAID_013_05,IBDAID_013,4.1
IBDAID_013_06,IBDAID_013,5.1
IBDAID_013_07,IBDAID_013,1.1
IBDAID_013_09,IBDAID_013,3.1
IBDAID_015_10,IBDAID_015,5.1
IBDAID_015_11,IBDAID_015,5.2
IBDAID_015_12,IBDAID_015,6.1
IBDAID_015_13,IBDAID_015,6.2
IBDAID_015_14,IBDAID_015,1.1
IBDAID_015_15,IBDAID_015,1.2
IBDAID_015_16,IBDAID_015,3.1
IBDAID_015_17,IBDAID_015,3.2
IBDAID_015_18,IBDAID_015,4.1
IBDAID_015_01,IBDAID_015,1.1
IBDAID_015_02,IBDAID_015,1.2
IBDAID_015_03,IBDAID_015,2.1
IBDAID_015_04,IBDAID_015,2.2
IBDAID_015_05,IBDAID_015,1.1
IBDAID_015_08,IBDAID_015,3.1
IBDAID_015_09,IBDAID_015,4.1
IBDAID_016_10,IBDAID_016,1.2
IBDAID_016_02,IBDAID_016,1.2
IBDAID_016_03,IBDAID_016,1.3
IBDAID_016_04,IBDAID_016,2.1
IBDAID_016_05,IBDAID_016,3.1
IBDAID_016_06,IBDAID_016,3.2
IBDAID_016_07,IBDAID_016,4.1
IBDAID_016_08,IBDAID_016,4.2
IBDAID_016_09,IBDAID_016,1.1
IBDAID_018_10,IBDAID_018,1.2
IBDAID_018_11,IBDAID_018,1.3
IBDAID_018_12,IBDAID_018,1.4
IBDAID_018_13,IBDAID_018,3.1
IBDAID_018_14,IBDAID_018,3.2
IBDAID_018_15,IBDAID_018,4.1
IBDAID_018_16,IBDAID_018,4.2
IBDAID_018_17,IBDAID_018,5.1
IBDAID_018_18,IBDAID_018,5.2
IBDAID_018_19,IBDAID_018,5.3
IBDAID_018_01,IBDAID_018,1.1
IBDAID_018_20,IBDAID_018,6.1
IBDAID_018_21,IBDAID_018,1.3
IBDAID_018_22,IBDAID_018,1.1
IBDAID_018_23,IBDAID_018,2.1
IBDAID_018_24,IBDAID_018,3.2
IBDAID_018_25,IBDAID_018,1.2
IBDAID_018_26,IBDAID_018,2.2
IBDAID_018_27,IBDAID_018,3.1
IBDAID_018_28,IBDAID_018,4.1
IBDAID_018_05,IBDAID_018,2.2
IBDAID_018_06,IBDAID_018,3.1
IBDAID_018_07,IBDAID_018,3.2
IBDAID_018_08,IBDAID_018,4.1
IBDAID_018_09,IBDAID_018,1.1
IBDAID_019_10,IBDAID_019,1.2
IBDAID_019_11,IBDAID_019,2.1
IBDAID_019_12,IBDAID_019,2.2
IBDAID_019_13,IBDAID_019,3.1
IBDAID_019_14,IBDAID_019,4.1
IBDAID_019_01,IBDAID_019,1.1
IBDAID_019_02,IBDAID_019,1.2
IBDAID_019_03,IBDAID_019,1.3
IBDAID_019_04,IBDAID_019,2.1
IBDAID_019_05,IBDAID_019,3.1
IBDAID_019_06,IBDAID_019,3.2
IBDAID_019_07,IBDAID_019,4.1
IBDAID_019_08,IBDAID_019,5.1
IBDAID_019_09,IBDAID_019,1.1
IBDAID_020_10,IBDAID_020,5.1
IBDAID_020_11,IBDAID_020,5.2
IBDAID_020_12,IBDAID_020,5.3
IBDAID_020_13,IBDAID_020,7.1
IBDAID_020_01,IBDAID_020,1.1
IBDAID_020_02,IBDAID_020,1.2
IBDAID_020_05,IBDAID_020,2.3
IBDAID_020_06,IBDAID_020,3.1
IBDAID_020_07,IBDAID_020,1.1
IBDAID_020_08,IBDAID_020,1.2
IBDAID_020_09,IBDAID_020,4.1
IBDAID_021_10,IBDAID_021,2.4
IBDAID_021_11,IBDAID_021,3.1
IBDAID_021_12,IBDAID_021,4.1
IBDAID_021_13,IBDAID_021,4.2
IBDAID_021_15,IBDAID_021,5.2
IBDAID_021_16,IBDAID_021,6.1
IBDAID_021_17,IBDAID_021,7.1
IBDAID_021_18,IBDAID_021,7.2
IBDAID_021_19,IBDAID_021,7.3
IBDAID_021_01,IBDAID_021,1.1
IBDAID_021_20,IBDAID_021,7.4
IBDAID_021_21,IBDAID_021,1.1
IBDAID_021_22,IBDAID_021,1.2
IBDAID_021_23,IBDAID_021,1.3
IBDAID_021_24,IBDAID_021,2.1
IBDAID_021_25,IBDAID_021,2.2
IBDAID_021_26,IBDAID_021,3.1
IBDAID_021_27,IBDAID_021,3.2
IBDAID_021_28,IBDAID_021,3.3
IBDAID_021_02,IBDAID_021,1.2
IBDAID_021_03,IBDAID_021,1.3
IBDAID_021_04,IBDAID_021,2.1
IBDAID_021_06,IBDAID_021,1.2
IBDAID_021_07,IBDAID_021,2.1
IBDAID_021_08,IBDAID_021,2.2
IBDAID_021_09,IBDAID_021,2.3
IBDAID_023_10,IBDAID_023,2.2
IBDAID_023_11,IBDAID_023,2.3
IBDAID_023_12,IBDAID_023,3.1
IBDAID_023_13,IBDAID_023,3.2
IBDAID_023_14,IBDAID_023,5.1
IBDAID_023_15,IBDAID_023,6.1
IBDAID_023_01,IBDAID_023,1.1
IBDAID_023_02,IBDAID_023,1.2
IBDAID_023_04,IBDAID_023,2.2
IBDAID_023_05,IBDAID_023,3.1
IBDAID_023_06,IBDAID_023,3.2
IBDAID_023_07,IBDAID_023,1.1
IBDAID_023_08,IBDAID_023,1.2
IBDAID_023_09,IBDAID_023,2.1
IBDAID_024_01,IBDAID_024,1.1
IBDAID_024_02,IBDAID_024,1.2
IBDAID_024_03,IBDAID_024,1.3
IBDAID_024_04,IBDAID_024,2.1
IBDAID_024_05,IBDAID_024,2.2
IBDAID_024_06,IBDAID_024,3.1
IBDAID_024_07,IBDAID_024,3.2
IBDAID_025_18,IBDAID_025,1.1
IBDAID_025_19,IBDAID_025,1.2
IBDAID_025_01,IBDAID_025,1.1
IBDAID_025_20,IBDAID_025,2.1
IBDAID_025_21,IBDAID_025,2.2
IBDAID_025_22,IBDAID_025,3.1
IBDAID_025_23,IBDAID_025,3.2
IBDAID_025_24,IBDAID_025,4.1
IBDAID_025_25,IBDAID_025,4.2
IBDAID_025_04,IBDAID_025,2.2
IBDAID_025_05,IBDAID_025,3.1
IBDAID_025_06,IBDAID_025,3.2
IBDAID_025_07,IBDAID_025,4.1
IBDAID_025_08,IBDAID_025,4.2
IBDAID_024_10,IBDAID_024,2.1
IBDAID_024_11,IBDAID_024,2.2
IBDAID_024_12,IBDAID_024,3.1
IBDAID_024_13,IBDAID_024,4.1
IBDAID_024_14,IBDAID_024,5.1
IBDAID_024_15,IBDAID_024,6.1
IBDAID_024_16,IBDAID_024,7.1
IBDAID_024_17,IBDAID_024,8.1
IBDAID_024_18,IBDAID_024,8.2
IBDAID_024_19,IBDAID_024,8.3
IBDAID_024_20,IBDAID_024,1.1
IBDAID_024_21,IBDAID_024,1.2
IBDAID_024_22,IBDAID_024,2.1
IBDAID_024_23,IBDAID_024,2.2
IBDAID_024_24,IBDAID_024,3.1
IBDAID_024_08,IBDAID_024,1.1
IBDAID_024_09,IBDAID_024,1.2
IBDAID_025_10,IBDAID_025,1.2
IBDAID_025_11,IBDAID_025,2.1
IBDAID_025_12,IBDAID_025,2.2
IBDAID_025_13,IBDAID_025,3.1
IBDAID_025_14,IBDAID_025,3.2
IBDAID_025_15,IBDAID_025,4.1
IBDAID_025_16,IBDAID_025,4.2
IBDAID_025_17,IBDAID_025,5.1
IBDAID_025_09,IBDAID_025,1.1
